Reticulate-Python with R-NLP-Health and Wellness Classifier
…
We see from the above it basically goes along every string word and counts each white space to separate a character from a non-character and get each word, but it also does it for any three combinations, so that almost every word is part of the beginning of one trigram (as we set n to 3 for the number of ngrams, thus trigram), the middle of one trigram, or the end of a trigram. Look at wonderful above and see what I am referring to.

text_df4 <- text_df3 %>% group_by(bigram) %>% count(bigram, sort=TRUE) %>% ungroup
head(text_df4,30)

## # A tibble: 30 x 2
##    bigram               n
##    <chr>            <int>
##  1 mental health    25281
##  2 physical therapy 11236
##  3 massage gun       9409
##  4 massage therapy   7744
##  5 if you            7225
##  6 massage guns      6241
##  7 can be            5625
##  8 can help          5041
##  9 you can           3600
## 10 stone massage     3249
## # ... with 20 more rows
…
text_df0 <- text_df %>% unnest_tokens(unigram,text,token='ngrams',n=1)

text_df01 <- anti_join(text_df0,stop, by=c("unigram"="fillers"))

We see from the above it basically goes along every string word and counts each white space to separate a character from a non-character and get each word, but it also does it for any three combinations, so that almost every word is part of the beginning of one trigram (as we set n to 3 for the number of ngrams, thus trigram), the middle of one trigram, or the end of a trigram. Look at wonderful above and see what I am referring to.

text_df4 <- text_df01 %>% group_by(unigram) %>% count(unigram, sort=TRUE) 
head(text_df4,30)

## # A tibble: 30 x 2
## # Groups:   unigram [30]
##    unigram      n
##    <chr>    <int>
##  1 massage    667
##  2 can        479
##  3 pain       347
##  4 therapy    328
##  5 health     298
##  6 help       263
##  7 cupping    261
##  8 physical   236
##  9 body       221
## 10 may        196
## # ... with 20 more rows
…
