Reticulate-Python with R-NLP-Health and Wellness Classifier
…
We see from the above it basically goes along every string word and counts each white space to separate a character from a non-character and get each word, but it also does it for any three combinations, so that almost every word is part of the beginning of one trigram (as we set n to 3 for the number of ngrams, thus trigram), the middle of one trigram, or the end of a trigram. Look at wonderful above and see what I am referring to.

text_df4 <- text_df3 %>% group_by(bigram) %>% count(bigram, sort=TRUE) %>% ungroup
head(text_df4,30)

## # A tibble: 30 x 2
##    bigram               n
##    <chr>            <int>
##  1 mental health    24964
##  2 physical therapy 11236
##  3 massage gun       9409
##  4 massage therapy   7921
##  5 massage guns      6241
##  6 if you            5776
##  7 can be            4900
##  8 can help          4900
##  9 stone massage     3249
## 10 you can           3136
## # ... with 20 more rows
…
